// Jest Snapshot v1, https://goo.gl/fbAQLP

exports[`<VoteEligiblePopup /> renders an eligible (numVotes > 0) invisible popup 1`] = `
<div
  className="meeting-voter-eligibility-popup  is-eligible"
>
  👍 Voter is eligible, give 1 card
</div>
`;

exports[`<VoteEligiblePopup /> renders an eligible (numVotes > 0) visible popup 1`] = `
<div
  className="meeting-voter-eligibility-popup is-activated is-eligible"
>
  👍 Voter is eligible, give 1 card
</div>
`;

exports[`<VoteEligiblePopup /> renders an ineligible (numVotes == 0) invisible popup 1`] = `
<div
  className="meeting-voter-eligibility-popup  "
>
  🚫 Voter is NOT eligible
</div>
`;

exports[`<VoteEligiblePopup /> renders an ineligible (numVotes == 0) visible popup 1`] = `
<div
  className="meeting-voter-eligibility-popup is-activated "
>
  🚫 Voter is NOT eligible
</div>
`;
