// Jest Snapshot v1, https://goo.gl/fbAQLP

exports[`<SkipLink /> renders with a child 1`] = `
<a
  className="skip-link"
  href="#"
  onClick={[Function]}
>
  <span>
    hi
  </span>
</a>
`;

exports[`<SkipLink /> renders with a passthrough property 1`] = `
<a
  aria-pressed="false"
  className="skip-link"
  href="#"
  onClick={[Function]}
  role="button"
>
  <strong>
    bar
  </strong>
</a>
`;

exports[`<SkipLink /> renders with a targetId 1`] = `
<a
  className="skip-link"
  href="#foo"
  onClick={[Function]}
>
  <p>
    bye
  </p>
</a>
`;

exports[`<SkipLink /> renders with an event handler 1`] = `
<a
  className="skip-link"
  href="#"
  onClick={[Function]}
>
  <strong>
    bar
  </strong>
</a>
`;
